soilID;plot;year;month;season;Season.Year;treatment;Ambrosia.artemisiifolia;Anagallis.arvensis;Axonopus.fissifolius;Bidens.pilosa;Bothriochloa.macra;Briza.sp;Bromus.catharticus;Cicorium.intybus;Commelina.cyanea;Conyza.bonariensis;Cymbopogon.refractus;Cynodon.dactlyon;Cyperus.sesquiflorus;Daucus.glochidiatus;Dichelachne.sp;Digitaria.sp;Echium.plantagineum;Entolasia;Eragrostis.curvula;Euchiton.sphaericus;Hypochaeris.radicata;Juncus.sp;Lolium.perenne;Lotus.corniculatus;Magathyrus;Medicago.sativa;Microlaena.stipoides;Modiola.caroliniana;Ornithopus.compressus;Oxalis.corniculata;Paspalidium.flavidum;Plantago.lanceolata;Senecio.madagascariensis;Setaria.parviflora;Sida.rhombifolia;Sonchus.oleraceus;Sporobolus.sp;Trifolium.repens;Verbena.bonariensis;Vicia.sativa;Vulpia.myuros;Paspalum.dilitatum;Whalenbergia.sp
22;11;2014;4;autumn;autumn-2014;Reduced;0;0;0;0;0.4231;0;0;0;0;0;0;14.9501;0;0;0;0;0;0;0;0;0;0;0;0;0;0;14.1039;0;0;0;0;0;0;24.1646;0;0;0;0;0;0;0;75.2206;0
40;11;2014;10;spring;spring-2014;Reduced;0;0;0.0278;0;0;0;0;0;0;0;0;7.0583;0;0;0;0;0;0;0;0;0;0;0;0;0;0;0.9726;0;0;0;0;0.9448;0;0;0;0;0;0;0;0;0;8.6701;0
58;11;2015;4;autumn;autumn-2015;Reduced;0;0;0;0;0;0;0;0;0;0;0.5922;12.0504;0.1724;0;0;0;0;0;0;0;0;0;0;0;0;0;1.3124;0;0;0;0;1.9739;0;53.4024;0;0;0;0;0;0;0;102.764;0
CD37;11;2016;4;autumn;autumn-2016;Reduced;0;0;0;0;2.971629382;0;0;0;0;0.727449053;0;2.304801083;1.115421881;0;0;0;0;0;0;0;0.060620754;0;0;0;0;0;2.838263722;0;0;0;0.230358867;0.242483018;0;21.99442212;0;0;0;0;0;0;0;41.5749258;1.079049429
CD46;11;2017;3;autumn;autumn-2017;Reduced;0;0;0;0;9.45;0;0;0;0;0;9.05;9.1;0.3;0;0;0;0;0;9.1;0;0;0;0;0;0;0;7.75;0;0;0;0;0;0;16.2;0;0;0;0;0;0;0;3.05;0
CD61;11;2016;9;spring;spring-2016;Reduced;0;0;0;0;0;0;0;0;0;0;0;0;0;0;0;0;0;0;0;0;0;0;0;0;0;0;0;0;0;0;0;0;0;0;0;0;0;0;0;0;0;0;0
23;17;2014;4;autumn;autumn-2014;Summer drought;0;0;0;0;0;0;0;0;0;0;0;31.3303;0.7104;0;0;0.3907;0;0;0;0;0;0;0;0;0;0;0.4263;0;0;0;0;0;0;6.0387;0;0;0;0;0;0;0;52.3237;0
41;17;2014;10;spring;spring-2014;Summer drought;0;0;0;0;0;0;11.9272;0;0;0;0;3.2664;0;0;0;0;6.6;0;0;0;0.099;0;26.0814;0.9898;0;0;0;0;0;0;0;13.5603;5.3449;0;0;0;0;0;0;1.1383;0;9.3537;0
59;17;2015;4;autumn;autumn-2015;Summer drought;0;0;0;0;0;0;0;0;1.2922;0;0;17.5058;0;0;0;0;0;0;0;0;0;0;0;0;0;0;0.5489;0;0;0;0;2.602;0;4.5625;0;0;0;0;0;0;0;31.1308;0
CD52;17;2016;9;spring;spring-2016;Summer drought;0;0;0;0;0;0;0;0;0;0;0;0.25;0;0;0;0;0;0;3.2;0;0;0;0;0;0;0;1;0;0;0.005;0;5.55;2;0;0;0;0;0.005;0;0.95;0;0;0
CD57;17;2016;4;autumn;autumn-2016;Summer drought;0;0;0;0;0;0;0;0;0;0;0;3.544236103;0.074116188;0;0;0;0;0;0;0;0;0;0;0;0;0;0.919040729;0;0;0;0;0.163055613;0;2.610372136;0;0;0;0;0;0;0;13.89085593;0
24;18;2014;4;autumn;autumn-2014;Ambient;0;0;0;0;0;0;0;0;0;0;0;24.1189;0.67;0;0;49.0624;0;0;0;0;0;0;0;0;0;0;0;0;0;0;0;0;0;20.7691;0;0;0;0;0;0;0;181.9741;0
42;18;2014;10;spring;spring-2014;Ambient;0;0;0;0;0;0.6135;0;0;0;0;0;9.6743;0;0;0;0;0;0;1.345;0;0.0472;0;2.2416;0;0;0;0.5663;0;0.2124;0.3303;0;9.8159;3.4686;5.427;0;0;0;0;0;1.2506;0;22.1093;0
60;18;2015;4;autumn;autumn-2015;Ambient;0;0;0;0;0;0;0;0;0;0;0;44.6477;0.116;0;0;0;0;0;0.9705;0;0;0;0;0;0;0;0;0;0;0.2269;0;15.8628;0.8647;24.4109;0;0;0;0;0;0;0;70.4467;0
CD2;18;2016;4;autumn;autumn-2016;Ambient;0;0;0;0;0;0;0;0;0;0.307545503;29.58587736;11.4406927;2.829418625;0;0;0.984145609;0;0;4.45940979;0;0.768863757;0;0;0;0;0;4.213373388;0;0;0.399809154;0;17.3148118;0;44.74787065;0;0;0;0;0;0;0;113.5150451;0
CD4;18;2016;9;spring;spring-2016;Ambient;0;0;0.1;0;0;0;0;0;0;0;0;0;0;0.005;0;0;0;0;24.95;0;0.005;0;0;0;0;0;0.75;0;0.7;0.005;0;0;1;0;0;0;0;0;0;0;0;1;0
CD48;18;2017;3;autumn;autumn-2017;Ambient;0;0;0;0;0;0;0;0;0;0;4.05;72.65;0;0;0;0;0;0;0;0;13.25;0;0;0;0;0;18.2;0;0;0;0;19.3;0;142.75;0;0;0;0;0;0;0;73.1;0
19;2;2014;4;autumn;autumn-2014;Ambient;0;0;0.2748;0;0;0;0;0;0;0;0;94.3116;0.8794;0;0;5.8807;0;0;94.4216;0;0;0;0;0;0;0;19.5109;0;0;0;0;0;0;51.113;0;0;0;0;0;0.1099;0;127.7274;0
37;2;2014;10;spring;spring-2014;Ambient;0;0;0;0;0;0;0;0;0;0;0;3.4211;0;0;0;0;0;0;12.976;0;0;0;0.5426;0;0;0;0.3768;0;0;0;0;0.3165;1.3413;0;0;0.3466;0;0;0;0.633;0;1.6427;0
55;2;2015;4;autumn;autumn-2015;Ambient;0;0;0.2191;0;4.5275;0;0;0;0;0;0;21.8949;1.996;0;0;0.0594;0;0;75.3271;0;0;0;0;0;0;0;7.8383;0;0;0;0;2.8654;0;47.1712;0;0;0;0;0;0;0;24.6221;0.1475
CD54;2;2016;4;autumn;autumn-2016;Ambient;0;0;0;0;4.931810171;0;0;0;0;1.907211506;32.99200386;10.59527933;4.022593771;0;0;0;0;0;23.53247969;0;0.300010799;0;0;0;0;0;22.20998311;0;0;0.003061335;0;4.962423518;0;32.07666479;0;0;0;0;0;0;0;28.55919124;0.278581456
CD7;2;2016;9;spring;spring-2016;Ambient;0;0;0;0;0;0;0;0;0;0;0;0;0;0;0;0;0;0;0;0;0.8;0;0;0;0;0;0.4;0;0;0.005;0;0.15;0;0;0;0;0;0;0;0;0;4.05;0
CD72;2;2017;3;autumn;autumn-2017;Ambient;0;0;0;0;4.35;0;0;0;0;0;5.4;13.15;4.05;0;0;0;0;0;3.5;0;0;0;0;0;0;0;15;0;0;0;0;0.15;0.35;36.65;0;0;0;0;0;0;0;22.3;0
25;22;2014;4;autumn;autumn-2014;Summer drought;0;0;2.06;0;1.04;0;0;0;0;0;3.54;2.9;0;0;0;0;0;0;0.62;0;0;0;0;0;0;0;0.15;0;0;0;0;0;0;0.08;0;0;0;0;0;0;0;10.28;0
43;22;2014;10;spring;spring-2014;Summer drought;0;0;0.1534;0;2.3131;0;0;0;0;0;0;1.3546;0;0;0;0;0;0;0;0;0.1917;0;3.8339;0.1022;0;0;1.2013;0;0;0;0;1.1629;5.3802;1.0863;0;0.1278;0;0;0;0.4089;0;10.8243;0
61;22;2015;4;autumn;autumn-2015;Summer drought;0;0;0.9999;0;13.8272;0;0;0;0;0;0;2.152;0;0;0;0.7295;0;0;0.4836;0;2.4553;0;0;0;0;0;0.845;0;0;0;0;0;0;1.5269;0;0;0;0;0;0;0;29.3982;0
CD1;22;2016;9;spring;spring-2016;Summer drought;0;0;0;0;0;0;0;0;0;0;0;0;0;0;0;0;0;0;1.15;0;0;0;0;0;0;0;0.3;0;0;0;0;4.05;0;0;0;0;0;0;0;0;0;0.4;0
CD58;22;2016;4;autumn;autumn-2016;Summer drought;0;0;0;0;3.822;0;0;0;0;0;0;2.071;0;0;0;0;0;0;0.05;0;0.338;0;0;0;0;0;0;0;0;0;0;0.05;0;0.315;0;0;0;0;0;0;0;5.825;0
CD70;22;2017;3;autumn;autumn-2017;Summer drought;0;0;0;0;0;0;0;0;0;0;0;0.85;0;0;0;0;0;0;0;0;0;0;0;0;0;0;0;0;0;0;0;0;0;0;0;0;0;0;0;0;0;3.95;0
26;24;2014;4;autumn;autumn-2014;Ambient;0;0;0;0;13.6562;0;0;0;15.2453;0;0;4.9162;0;0;0;0;0;0;1.1918;0;0;0;0;0;0;0;29.0009;0;0;0;0;0;0;4.4693;0;0;0;0;0;0;0;31.9804;0
44;24;2014;10;spring;spring-2014;Ambient;0;0;0.079;0;0;0;0;0;0.0592;0;0;0.3555;0;0;0;0;0;0;0;0;0;0;0.1382;0;0;0;22.2768;0;0;0;0;0;0;0.2172;0;0;0;0;0;0.0592;0;6.1024;0
62;24;2015;4;autumn;autumn-2015;Ambient;0;0;0;0.2831;4.8046;0;0;0;1.5112;0;0;1.3773;0.2562;0;0;0;0;0;11.8778;0;0;0;0;0;0;0;21.9366;0;0;0;0;0;0;18.2107;0;0;0;0;0;0;0;17.8767;0
CD29;24;2017;3;autumn;autumn-2017;Ambient;0;0;0;0;32.2;0;0;0;0;1.45;91.25;7.4;0;0;0;0;0;0;0;0;0;0;0;0;0;0;26.4;0;0;0.2;0;1.8;0;0;0;0;0;0;0;0;0;0;0
CD40;24;2016;9;spring;spring-2016;Ambient;0;0;0;0;0;0;0;0;0;0;0;0.55;0;0;0;0;0;0;32.45;0;1.1;0;0;0;0;0.2;0;0;1.25;0;0;0.005;1.45;0;0;0;0;0.005;0;0.55;0;0;0
CD66;24;2016;4;autumn;autumn-2016;Ambient;0;0;0;0;0;0;0;0;0.315561472;0;102.5526606;5.407904614;1.341738472;0;0;0.46250231;0;0;0;0;4.600934438;0;0;0;0;0;41.01335588;0;0;0;0;0.510679634;0;15.13731519;0;0;0;0;0;0;0;5.109205206;0
20;3;2014;4;autumn;autumn-2014;Summer drought;0;0;0;0;0;0;0;0;0;0;0;41.1971;0;0;0;0;0;0;0;0;0;0;0;0;0;0;0.0891;0;0;0;0;0;0;13.4353;0;0;0;0;0;0;0;11.3186;0
38;3;2014;10;spring;spring-2014;Summer drought;0;0;0;0;0;0;0.0687;0;0;0;0;6.1989;0;0;0;0;0;0;0;0;0.0859;0;5.7868;0;0;0;4.8596;0;0;0;0;11.4019;5.9757;4.2414;0;0;0;0;0;0.4465;0;3.9151;0
56;3;2015;4;autumn;autumn-2015;Summer drought;0;0;0;0;0;0;0;0;0;0;0;21.4601;0;0;0;0;0;0;0.1783;0;0.1384;0;0;0;0;0;10.112;0;0;0;0;4.6592;0;10.3637;0;0;0;0;0;0;0;19.1084;0
CD47;3;2017;3;autumn;autumn-2017;Summer drought;0;0;0;0;0;0;0;0;0;0;0;3.4;0;0;0;0;0;0;13.25;0;0.55;0;0;0;0;0;1.15;0;0;0;0;8.45;0;0;0;0;0;0;0;0;0;1.95;0
CD50;3;2016;9;spring;spring-2016;Summer drought;0;0;0;0;0;0;0;0;0;0;0;0;0;0;0;0;0;0;0;0;0.005;0;0;0;0;0;2.05;0;0;0.005;0;0.25;9.2;0;0;0;0;0.25;0;0.7;0;0;0
CD53;3;2016;4;autumn;autumn-2016;Summer drought;0;0;0;0;0;0;0;0;0;0;0;2.7;0;0;0;0;0;0;0.01;0;0;0;0;0;0;0;0.11;0;0;0;0;0;0;0.17;0;0;0;0;0;0;0;4.68;0
27;30;2014;4;autumn;autumn-2014;Reduced;0.5088;0;0;0;0;0;0;0;0;0;0;15.5182;0;0;0;0;0;0;39.4952;0;0;0;0;0;0;0;0.0636;0;0;0;0;0;0;6.8051;0;0;0;0;0;0;0;202.0552;0
45;30;2014;10;spring;spring-2014;Reduced;0;0;0;0;0;0;0;0;0;0;0;0;0;0;0;0.3972;0;0;38.1658;0;0;0;0.0953;0;0;0;0.3496;0;0;0;0;0;0;0.2701;0;0;0;0;0;0.0636;0;6.594;0
63;30;2015;4;autumn;autumn-2015;Reduced;0;0;0;0;0;0;0;0;0;0;0;0.5146;0;0;0;4.2128;0;0;123.4281;0;0;0;0;0;0;0;0;0;0;0;0;0;0;8.9163;0;0;0;0;0;0;0;54.6554;0
CD39;30;2016;9;spring;spring-2016;Reduced;0;0;0;0;0;0;0;0;0;0;0;0.1;0;0;0;0;0;0;4.4;0;0;0;0;0;0;0;2.2;0;0;0;0;0;0;0;0;0;0;0;0;0;0;2.85;0
CD71;30;2017;3;autumn;autumn-2017;Reduced;0;0;0;0;0;0;0;0;0;0;0;0.65;0;0;0;0;0;0;34.05;0;0;0;0;0;0;0;9.05;0;0;0;0;0;0;9.3;0;0;0;0;0;0;0;9.05;0
CD79;30;2016;4;autumn;autumn-2016;Reduced;0;0;1.307699052;0;0;0;0;0;0;0.435899684;0;14.21950653;0.002294209;0;0;0;0;0;108.2545394;0;2.13820266;0;0;0;0;0;5.657519055;0;0;0;0;0.032118924;0;13.54042071;0;0;0;0;0;0;0;70.2027912;0.472607026
28;37;2014;4;autumn;autumn-2014;Reduced;0;0;0.6264;0;12.648;0;0;0;0;0;112.669;0;0.2088;0;0;0;0;0;0;0;0;0;0;0;0;0;2.7742;0;0;0;2.6847;0;0;1.1932;0;0;0;0;0;0;0;0.4475;0
46;37;2014;10;spring;spring-2014;Reduced;0;0;0.2868;0;0;0;0;0;0;0;0.4507;0.1024;0;0;0;0;0;0;15.2619;0;0.0205;0;0;0;0;0;1.434;0;0;0;0;0;0;0.041;0;0;0;0;0;0;0;0.6146;0
64;37;2015;4;autumn;autumn-2015;Reduced;0;0;2.1602;0;7.9678;0;0;0;0;0;51.0875;0;0.7137;0;0;0;0;0;10.3534;0;0.0141;0.1542;0;0;0;0;6.7198;0;0;0;0;0;0;6.5587;0;0;0.5688;0;0;0;0;5.26;0
CD16;37;2016;9;spring;spring-2016;Reduced;0;0;0;0;0;0;0;0;0;0;0;0;0;0;0;0;0;0;3.15;0;0.005;0;0.2;0;0;0;0;0;0;0;0;0;0;0;0;0;0;0;0;0.05;0;0;0
CD31;37;2017;3;autumn;autumn-2017;Reduced;0;0;0;0;4;0;0;0;0;0;30.85;1.85;0.15;0;0;0;0;0;5.9;0;0.2;0;0;0;0;0;0.55;0;0;0.15;0;0;0;3.55;0;0;0;0;0;0;0;3.05;0.3
CD5;37;2016;4;autumn;autumn-2016;Reduced;0;0;1.788580261;0;15.06826264;0;0;0;0;0;38.25667967;0;0.610221501;0;0;0;0;0;0;0;0.021042121;0;0;0;0;0;9.534184895;0;0;0;0.063126362;0;0;6.335782547;0;0;0;0;0;0;0;7.89289948;0
29;39;2014;4;autumn;autumn-2014;Ambient;0;0;23.4831;0;32.6809;0;0;0;0;0;1.6279;0.0407;1.0175;0;0;8.6688;0;0;1.3431;0;0;0;0;0;0;0;2.4012;0;0;0;0.2849;0;0;7.4478;0;0;0;0;0;0;0;25.3552;0
47;39;2014;10;spring;spring-2014;Ambient;0;0;2.2465;0;0.9459;0.0709;0;0;0;0;0;0;0;0;0;0;0;0;0.9223;0;0.0236;0;1.6553;0;0;0;0.1892;0;0;0;0;0;0.0709;0;0;0;0;0;0;0.3074;0;2.5066;0
65;39;2015;4;autumn;autumn-2015;Ambient;0;0;24.9438;0;36.0956;0;0;0;0;0.5041;5.4446;0;1.0375;0;0;32.8692;0;0;3.5712;0;0;0;0;0;0;0;2.0095;0;0;0.1477;0;0;0;13.2213;0;0;0;0;0;0;0;20.936;0
CD32;39;2016;9;spring;spring-2016;Ambient;0;0;0;0;0;0;0;0;0;0;0;1.5;0;0;0;0;0;0;0.9;0;0.8;0;0;0;0;0;0.2;0;0;0;0;0;0;0;0;0;0;0;0;0;0;0;0
CD49;39;2016;4;autumn;autumn-2016;Ambient;0;0;11.86660523;0;12.77583867;0;0;0;0;0;7.786142957;17.56594656;4.614914125;0;0;0;0;0;0;0;0.110882127;0;0;0;0;0;4.459679148;0;0;0;0;0.133058552;0;15.17089261;0;0;0;0;0;0;0;14.48342343;0
CD64;39;2017;3;autumn;autumn-2017;Ambient;0;0;9.05;0;16.1;0;0;0;0;0;27.3;11.4;1.05;0;0;0;0;0;7.2;0;0;0;0;0;0;0;4.9;0;0;0;0;0;0;3;0;0;0;0;0;0;0;9.35;0
30;40;2014;4;autumn;autumn-2014;Summer drought;0;0;1.54;0;0;0;0;0;0;0;0.95;2.1;0.11;0;0;0.13;0;0;0.42;0;0;0;0;0;0;0;0;0;0;0;0;0;0;0.79;0;0;0;0;0;0;0;12.32;0
48;40;2014;10;spring;spring-2014;Summer drought;0;0;1.5413;0;0;0;0.1526;0;0;0;0;0.6409;0;0;0;0;0;0;3.6168;0;0.0458;0;2.579;0;0;0;0.3357;0;0;0;0.061;0;0;0.8546;0;0;0;0;0;0.2136;0.0305;7.7829;0
66;40;2015;4;autumn;autumn-2015;Summer drought;0;0;1.8243;0;0;0;0;0;0;0;0;2.0916;0;0;0;1.9573;0;0;3.1286;0;0.609;0;0;0;0;0;0.7527;0;0;0;0;0;0;8.2856;0;0;0;0;0;0;0;46.4762;0
CD11;40;2016;9;spring;spring-2016;Summer drought;0;0;0;0;0;0;0;0;0;0;0;1.65;0;0;0;0;0;0;0;0;0.005;0;0.35;0;0;0;0;0;0;0;0;0.005;0.1;0;0;0;0;0;0;0.3;0;0.3;0
CD15;40;2017;3;autumn;autumn-2017;Summer drought;0;0;0;0;0;0;0;0;0;0;3.75;0.3;0;0;0;0;0;0;14.4;0;0;0;0;0;0;0;0;0;0;0;0;0;0;0.4;0;0;0;0;0;0;0;3.15;0
CD8;40;2016;4;autumn;autumn-2016;Summer drought;0;0;0;0;0.539774465;0;0;0;0;0;7.92732407;5.449268573;0;0;0;0;0;0;0;0;1.373971365;0;0;0;0;0;1.447576973;0;0;0;0;0;0;9.325830637;0;0;0;0;0;0;0;20.21946074;0
31;43;2014;4;autumn;autumn-2014;Reduced;0;0;12.2577;0;38.0962;0;0;0;0;0;34.9053;1.4787;0;0;0;0.7004;0;0;0;0;0.2724;0;0;0;0;0;3.6968;0;0;0;3.9303;0;0;6.6153;0;0;0;0;0;0;0;24.8657;0
49;43;2014;10;spring;spring-2014;Reduced;0;0;0.3847;0;0;0;0;0;0;0;1.0339;3.9673;0;0;0;0;0;0;1.9957;0;0.3366;0;0;0;0;0;0.8656;0;0;0;0;0;0;0;0;0;0;0;0;0;0;3.8712;0
67;43;2015;4;autumn;autumn-2015;Reduced;0;0;8.3332;0;19.1781;0;0;0;0;0;41.1923;0.8741;0;0;0;0;0;0;2.7691;0;0;0;0;0;0;0;0.8527;0;0;0;2.8048;0;0;2.9104;0;0;0;0;0;0;0;37.0334;0
CD20;43;2017;3;autumn;autumn-2017;Reduced;0;0;0;0;47.7;0;0;0;0;0;0;0;0;0;0;0;0;0;0;0;0;0;0;0;0;0;0;0;0;0;0;0;0;0;0;0;0;0;0;0;0;1.15;0
CD6;43;2016;4;autumn;autumn-2016;Reduced;0;0;1.594794388;0;39.55573353;0;0;0;0;0;18.29180836;0.531598129;0;0;0;0;0;0;0.72490654;0;0.002416355;0;0;0;0;0;5.26765419;0;0;0;0;0;0;5.195163536;0;0;3.98698597;0;0;0;0;24.16355133;0
CD9;43;2016;9;spring;spring-2016;Reduced;0;0;0;0;0;0;0;0;0;0;0;0.1;0;0;0;0;0;0;6.45;0;0;0;0;0;0;0;0;0;0.7;0.005;0;0;0.5;0;0;0;0;0.65;0;2.3;0;4.6;0
32;45;2014;4;autumn;autumn-2014;Summer drought;0;0;0.46;0;1.23;0;0;0;0;0;4.2;0.33;0;0;0;0;0;0;3.46;0;0.01;0;0;0;0;0;0.78;0;0;0;0;0;0;0;0;0;0;0;0;0;0;7.52;0
50;45;2014;10;spring;spring-2014;Summer drought;0;0;0.1014;0;0;0;0;0;0;0;0.6806;0.8833;0;0;0;0;0;0;3.3738;0;0.1738;0;0.4634;0;0;0;4.2571;0;0;0;0;0.029;0.0145;0;0;0;0;0;0;0.2462;0;4.7349;0
68;45;2015;4;autumn;autumn-2015;Summer drought;0;0;0.1563;0;0.5;0;0;0;0;0;10.8104;0.8544;0;0;0;0;0;0;8.5912;0;0;0;0;0;0;0;7.3565;0;0;0;0;0;0;1.7854;0;0;0;0;0;0;0;31.6967;0
CD27;45;2016;9;spring;spring-2016;Summer drought;0;0;0;0;0;0;0;0;0;0;0;0.45;0;0;0;0;0;0;0;0;0.05;0;0.3;0;0;0;0.65;0;0;0.005;0;0.005;0.005;0;0;0;0;0;0;0.9;0;1.25;0
CD34;45;2016;4;autumn;autumn-2016;Summer drought;0;0;0;0;0;0;0;0;0;0;9.207585278;0.396220606;0;0;0;0;0;0;0;0;0.001817526;0;0;0;0;0;0.892405127;0;0;0;0;0;0;0;0;0;0;0;0;0;0;6.510377115;0
CD45;45;2017;3;autumn;autumn-2017;Summer drought;0;0;0;0;0;0;0;0;0;0;1.05;0;0;0;0;0;0;0;0;0;0;0;0;0;0;0;0;0;0;0;0;0;0;1.7;0;0;0;0;0;0;0;4.45;0
33;46;2014;4;autumn;autumn-2014;Ambient;0;0;4.2097;0;21.4557;0;0;0;0;0;34.0394;0.0905;0;0;0;0;0;0;12.3121;0;0;0;0;0;0;0;25.7559;0;0;0;2.7612;0;0;3.1686;0;0;0;0;0;0;0;45.3105;0
51;46;2014;10;spring;spring-2014;Ambient;0;0;0;0;0;0;0;0;0;0;0.4425;0.4232;0;0;0;0;0;0;4.0978;0;0;0;0.0385;0;0;0;5.1944;0;0;0;0;0;0;0;0;0;0;0;0;0.5579;0.2886;3.0589;0
69;46;2015;4;autumn;autumn-2015;Ambient;0;0;2.0926;0;35.2804;0;0;0;0;0;20.2115;0;0;0;0;0;0;0;23.919;0;0;0;0;0;0;0;6.2132;0;0;0;0;0;0;2.4577;0;0;0;0;0;0;0;21.4092;0
CD17;46;2017;3;autumn;autumn-2017;Ambient;0;0;0;0;0;0;0;0;0;0;335.25;0;0;0;0;0;0;0;0;0;0;0;0;0;0;0;0;0;0;0;0;0;0;0;0;0;0;0;0;0;0;17.25;0
CD38;46;2016;4;autumn;autumn-2016;Ambient;0;0;0.314582157;0;24.83112524;0;0;0;0;0;61.33389049;0;0.521628576;0;0.170131166;0;0;0;0;0;0.250381717;0;0;0;0;0;8.265806669;0;0;0;0;0;0;0.861890909;0;0;0;0;0;0;0;6.020396275;0
CD43;46;2016;9;spring;spring-2016;Ambient;0;0;0;0;0;0;0;0;0;0;0;0;0;0;0;0;0;0;0;0;0.005;0;0.005;0;0;0;0.1;0;0.005;0;0;9.8;0.15;0;0;0;0;0.005;0;0;0;1.45;0
21;5;2014;4;autumn;autumn-2014;Reduced;0;0;0;0;0;0;0;0;0;0;0;87.2394;0;0;0;75.8712;0;0;0.2003;0;0;0;0;0;0;0;0;0;0;0;0;0;0;28.4455;0;0;0;0;0;0;0;0.7512;0
39;5;2014;10;spring;spring-2014;Reduced;0;0;0;0;0;0;0;0;0;0;0;32.3714;0;0;0;0;0;0;3.9157;0;0;0;0;0;0;0;0;0;0;0;0;1.8727;2.1889;8.1233;0;0;0;0;0;0;0;3.1131;0
57;5;2015;4;autumn;autumn-2015;Reduced;0;0;0;0;0;0;0;0;0;0;0;58.5403;0;0;0;0;0;0;4.1279;0;0;0;0;0;0;0;0;0;0;0;0;0.9127;0;89.9315;0;0;0;0;0;0;0;39.1622;0
CD18;5;2017;3;autumn;autumn-2017;Reduced;0;0;0;0;0;0;0;0;0;5.7;0;0;0;0;0;0;0;0;0.3;0;9.05;0;0;0;28.55;0;0;0;0;0.2;0;0;6.55;41.7;12.45;0;0;0;0;0;0;34.3;4.15
CD36;5;2016;9;spring;spring-2016;Reduced;0;0;0;0;0;0;0;0;0;0;0;1.25;0;0;0;0;0;0;2.4;0;0;0;0;0;0;0.005;4.6;0;0;0;0;0.35;0.65;0;0;0;0;0.05;0;0.4;0;0;0
CD62;5;2016;4;autumn;autumn-2016;Reduced;0;0;0;0;0.932307692;0;0;0;0;2.330769231;0;13.85142857;0.155384615;0;0;4.417362637;0;0;17.55846154;0;0.221978022;0;0;0;0;0;1.842417582;0;0;0;0;0.133186813;0;68.48021978;0;0;0;0;0;0;0;42.35340659;0
34;53;2014;4;autumn;autumn-2014;Ambient;0;0;23.1171;0;43.7678;0;0;0;0;0;23.6008;1.6443;0;0;0;0;0;0;21.2794;0;0;0;0;0;0;0;14.025;0;0;0;0;0;0;5.8518;0;0;0;0;0;0;0;26.9377;0
52;53;2014;10;spring;spring-2014;Ambient;0;0;4.2596;0;0;0;0.0314;0;0;0;0;0;0;0;0;0;0;0;5.077;0;0.0157;0;0;0;0;0;1.9333;0;0;0;0;0;0;0.4244;0;0;0;0;0;1.2575;0;1.5404;0
70;53;2015;4;autumn;autumn-2015;Ambient;0;0;15.6338;0;45.8285;0;0;0;0;0;18.1821;1.0024;0;0;0;5.4027;0;0;18.1878;0;0.1957;0;0;0;0;0;9.6069;0;0;0;0;0;0.0531;1.926;0;0;0;0;0;0;0;13.1832;0
CD13;53;2017;3;autumn;autumn-2017;Ambient;0;0;0.3;0;25;0;0;0;0;0;171.55;0.45;1.05;0;0;0;0;0;0;0;0;0;0;0;0;0;2;0;0;0;0;0;0;0;0;0;0;0;0;0;0;8.85;0
CD41;53;2016;4;autumn;autumn-2016;Ambient;0;0;3.423705364;0;33.17366436;0;0;0;0;0;41.85763227;0.657532818;1.156350818;0;0.158714818;0;0;0;0;0;0.022673545;0;0;0;0;0;4.400935174;0;0;0;0;0;0;0;0;0;0;0;0;0;0;7.41651672;0.090694182
CD44;53;2016;9;spring;spring-2016;Ambient;0;0;0;0;0;0;0;0;0;0;0;2.15;0;0;0;0;0;0;0;0;0;0;0;0;0;0;0;0;0;0;0;0;0;0;0;0;0;0;0;2.2;0;1.75;0
35;56;2014;4;autumn;autumn-2014;Reduced;0;0;3.4026;0;6.9025;0;0;0;0;0;63.8235;0.7291;0.5347;0;0;0;0;0;54.8308;0;0.0972;0;0;0;0;0;10.1106;0;0;0;1.993;0;0;8.4093;0;0;0;0;0;0;0;27.6585;0
53;56;2014;10;spring;spring-2014;Reduced;0;0;1.3496;0;0.7931;0;0;0;0;0;0;0.0278;0;0;0;0;0;0;11.4231;0;0.0139;0;0.2226;0;0;0;2.5601;0;0;0;0.2087;0;0;0;0;0;0;0;0;0.2365;0;3.5897;0
71;56;2015;4;autumn;autumn-2015;Reduced;0;0;2.0773;0;44.4107;0;0;0;0;0;44.2289;0.6163;0;0;0;0;0;0;13.5811;0;0.4178;0;0;0;0;0;8.3059;0;0;0;0;0;0;0.2857;0;0;0;0;0;0;0;1.8963;0
CD10;56;2016;9;spring;spring-2016;Reduced;0;0;0;0;0;0;0;0;0;0;0;1.75;0;0;0;0;0;0;0;0;0;0;3.95;0;0;0.25;0;0;1.1;0;0;1.55;0.05;0;0;0.005;0;0.1;0;0.4;0;7.75;0
CD19;56;2017;3;autumn;autumn-2017;Reduced;0;0;0;0;8.9;0;0;0;0;0.3;74.25;0;0.55;0;0;0;0;0;0;0;0;0;0;0;0;0;11.5;0;0;0;0;0;0;0;0;0;0;0;0;0;0;0.3;0
CD3;56;2016;4;autumn;autumn-2016;Reduced;0;0;0.353286107;0;31.44513996;0;0;0;0;0;74.44434147;0;0.00267641;0;0;0;0;0;0;0;0;0;0;0;0;0;2.165215612;0;0;0;0;0;0;2.066188446;0;0;0.441607634;0;0;0;0;9.490549519;0
36;59;2014;4;autumn;autumn-2014;Summer drought;0;0;0;0;0;0;0;0;0;0;0;24.4815;4.1167;0;0;1.4572;0;0;75.4482;0;0;0;0;0;0;0;0.1457;0;0;0;0;0;0;13.5158;0;0;0;0;0;0;0;0;0
54;59;2014;10;spring;spring-2014;Summer drought;0;0;0;0;0;0;0;0;0;0;0;3.1752;0;0;0;0;0;0;21.9768;0;2.9968;0;3.0206;0;0;0;0;0;2.0455;0;0;18.1237;0;0.0357;0;0;0;0;10.43;0.2735;0;0.6897;0
72;59;2015;4;autumn;autumn-2015;Summer drought;0;0;0;0;0;0;0;0;0;0;0;3.1857;2.1908;0;0;0.3895;0;0;42.5824;0;1.2909;0;0;0;0;0;0;0;0;0;0;1.0836;0;0;410;0;0;0;0;0;0;0.9142;0
CD22;59;2017;3;autumn;autumn-2017;Summer drought;0;0;0;0;0;0;0;0;0;0;0;12.2;14.85;0;0;0;0;0;55.2;0;0;0;0;0;0;0;0;0;0;0;0;0.9;0;0;99.65;0;0;0;0;0;0;0;0
CD59;59;2016;9;spring;spring-2016;Summer drought;0;0;0;0;0;0;0;0;0;0;0;0;0;0;0;0;0;0;2;0;0.005;0;1.65;0;0;0;0;0;0;0;0;0;6.05;0;0;0;0;0.3;0;4.55;0;1.45;0
CD85;59;2016;4;autumn;autumn-2016;Summer drought;0;0;0;0;0;0;0;0;0;0;0;11.28169393;12.54766355;0;0;1.165140187;0;0;52.2;0;5.848107477;0;0;0;0;0;0;0;0;0;0;0.044813084;0;3.48421729;167.33;0;0;0;0;0;0;1.490035047;0
